{
    "monthly":[
        
,{"name":"Teste","criador":"3 - lucas","startdate":"2017-11-30","enddate":"2017-12-02","starttime":"08:00","endtime":"00:00","local":"1","materiais":"89","quantidade":"20","color":"#1ABC9C"},{"name":"Reserva de Fonte","criador":"3 - lucas","startdate":"2017-11-30","enddate":"2017-12-01","starttime":"08:00","endtime":"00:00","local":"1","materiais":"153","quantidade":"12","color":"#1ABC9C"}] }